Bellabeat Case Study
…
Monday and Friday have high average sedentary minutes

Some factors that can contributeis work and relaxation relating to Mondays and Fridays

Hourly Activity

Finally, I will look at the different levels of hourly activity that could show insight and relationships between variables valuable to our analysis.

step_int_hr <- hourlyActivity %>% 
  group_by(time) %>% 
  summarize(avg_step_hr=mean(StepTotal), avg_int_hr=mean(TotalIntensity)) %>% arrange(time)

step_int_hr

## # A tibble: 24 x 3
##    time     avg_step_hr avg_int_hr
##    <chr>          <dbl>      <dbl>
##  1 00:00:00       42.2       2.13 
##  2 01:00:00       23.1       1.42 
##  3 02:00:00       17.1       1.04 
##  4 03:00:00        6.43      0.444
##  5 04:00:00       12.7       0.633
##  6 05:00:00       43.9       4.95 
##  7 06:00:00      179.        7.77 
##  8 07:00:00      306.       10.7  
##  9 08:00:00      428.       14.7  
## 10 09:00:00      433.       15.4  
## # ... with 14 more rows
…
